<?xml version="1.0" encoding="UTF-8"?>
<Project>
   <description></description>
   <name>Flutter Mobile Automation</name>
   <tag></tag>
   <UUID>a7e57eff-8531-408c-86ff-f157de8e4de2</UUID>
   <migratedVersion>5.9.0</migratedVersion>
   <pageLoadTimeout>0</pageLoadTimeout>
   <projectFileLocation>D:\FITA Quiz\Flutter Mobile Automation\Flutter Mobile Automation.prj</projectFileLocation>
   <sourceContent>
      <sourceFolderList>
         <sourceFolderConfiguration>
            <url>Include/scripts/groovy</url>
         </sourceFolderConfiguration>
      </sourceFolderList>
      <systemFolderList>
         <systemFolderConfiguration>
            <url>Include/scripts/groovy</url>
         </systemFolderConfiguration>
         <systemFolderConfiguration>
            <url>Include/features</url>
         </systemFolderConfiguration>
         <systemFolderConfiguration>
            <url>Include/config</url>
         </systemFolderConfiguration>
      </systemFolderList>
   </sourceContent>
   <timeStampInProperties>false</timeStampInProperties>
   <type>MOBILE</type>
</Project>
